<svg width="12" height="12" viewBox="0 0 12 12" fill="none" xmlns="http://www.w3.org/2000/svg">
<path fill-rule="evenodd" clip-rule="evenodd" d="M0.212929 0.125L4.07097 6.79167V11.875H7.92901V6.79167L11.7871 0.125H0.212929ZM5.35698 6.42442V10.7917H6.643V6.42442L9.51691 1.45833H2.48308L5.35698 6.42442Z" fill="#8F939B"/>
<path fill-rule="evenodd" clip-rule="evenodd" d="M0 0H12L8.04958 6.82629V12H3.95042V6.82629L0 0ZM0.425877 0.25L4.19154 6.75704V11.75H7.80846V6.75704L11.5741 0.25H0.425877ZM2.27015 1.33333H9.72985L6.76357 6.45905V10.9167H5.23643V6.45905L2.27015 1.33333ZM2.69602 1.58333L5.47756 6.3898V10.6667H6.52244V6.3898L9.30398 1.58333H2.69602Z" fill="#8F939B"/>
</svg>
